{
    "defaultSeverity": "error",
    "extends": [
        "tslint:recommended"
    ],
    "jsRules": {
		"whitespace": [true, "check-module"]
	},
    "rules": {
        "prettier/prettier": ["error", {
            "printWidth": 80,
            "tabWidth": 4,
            "useTabs": true,
            "semi": true,
            "singleQuote": true,
            "trailingComma": "all"
          }
        ],
        "ordered-imports": false,
        "max-line-length": [true, 120],
		"no-var-requires": true,
        "arrow-body-style": [2, "as-needed"],
        "comma-dangle": [2, "always-multiline"],
        "indent": [true, "tabs"],
        "quotemark": [true, "single"],
        "member-access": false,
        "interface-name": false,
        "arrow-parens": false,
        "object-literal-sort-keys": false
    },
    "rulesDirectory": []
}
